MAC,PIN
2000003200000008,31c5cb1b6bdc229a19fe3bd417f55b7b
2000003300000008,9c63ba3101bf9abcb905dac8ec3a92f6
2000003400000008,36d0a337664343b104ff7e7f31047a51
2000003500000008,bc0e74f16c52cf33e72143ee1ce4235f
2000003600000008,a0ec055df0eeeb4611e981a74b6aedf0
2000003700000008,4c07b8be56c03ba0533a2f10a37c7a3f
2000003800000008,e7d137756293d08084f18ba39908197f
2000003900000008,2dcd01a5a27bb64f91e86d95dd654397
2000003a00000008,8e482959e99ddb271deeff431812c5f5
2000003b00000008,cd271d31174a3b95699f2a0d873e7eba
2000003c00000008,458d1ad95240b970945fccea59ef604d
2000003d00000008,50bc72fd3917fcebff7d97b8a60a6057
2000003e00000008,49e8b66335bd66b77a82d26b59088625
2000003f00000008,72958f09274d34e15476e4c538088f13
2000004000000008,9b32ee624a668cf4d1e9ed5cbc430870
